{
  "project_info": {
    "project_number": "103926700768",
    "firebase_url": "https://testmyapp-80ca0.firebaseio.com",
    "project_id": "testmyapp-80ca0",
    "storage_bucket": "testmyapp-80ca0.appspot.com"
  },
  "client": [
    {
      "client_info": {
        "mobilesdk_app_id": "1:103926700768:android:009976c55d062c92",
        "android_client_info": {
          "package_name": "onlineshopping.readybytes.net.testmyapp"
        }
      },
      "oauth_client": [
        {
          "client_id": "103926700768-2h36vij2opa9rm3ph2r2u407s8p124lj.apps.googleusercontent.com",
          "client_type": 1,
          "android_info": {
            "package_name": "onlineshopping.readybytes.net.testmyapp",
            "certificate_hash": "0b1bd76c25dd31776485b61864b88a1bd4a1fa25"
          }
        },
        {
          "client_id": "103926700768-1091m4nrkharv10qt5d0ahi31cr1g9n9.apps.googleusercontent.com",
          "client_type": 1,
          "android_info": {
            "package_name": "onlineshopping.readybytes.net.testmyapp",
            "certificate_hash": "403809bc460446d40174109670c2fa6abe904bf7"
          }
        },
        {
          "client_id": "103926700768-i6bjcd407l061uglh94c53gq846fv57q.apps.googleusercontent.com",
          "client_type": 3
        }
      ],
      "api_key": [
        {
          "current_key": "AIzaSyDDhRW2SXu_baNwQPnklA3rN8bXPukvJJ0"
        }
      ],
      "services": {
        "analytics_service": {
          "status": 1
        },
        "appinvite_service": {
          "status": 2,
          "other_platform_oauth_client": [
            {
              "client_id": "103926700768-i6bjcd407l061uglh94c53gq846fv57q.apps.googleusercontent.com",
              "client_type": 3
            }
          ]
        },
        "ads_service": {
          "status": 2
        }
      }
    }
  ],
  "configuration_version": "1"
}